FIRMWARE_VER:5.0.0
MACHINE_MODEL:rk3288_box
MACHINE_ID:007
MANUFACTURER:rk3288_box
MAGIC: 0x5041524B
ATAG: 0x60000800
MACHINE: 3288
CHECK_MASK: 0x80
PWR_HLD: 0,0,A,0,1

CMDLINE:console=ttyS2 androidboot.selinux=permissive androidboot.hardware=rk30board androidboot.console=ttyS2 init=/init initrd=0x62000000,0x00800000 mtdparts=rk29xxnand:0x00002000@0x00002000(uboot),0x00002000@0x00004000(misc),0x00008000@0x00006000(resource),0x00008000@0x0000e000(kernel),0x00010000@0x00016000(boot),0x00010000@0x00026000(recovery),0x0001a000@0x00036000(backup),0x00040000@0x00050000(cache),0x00002000@0x00090000(kpanic),0x00300000@0x00092000(system),0x00008000@0x00392000(metadata),0x00002000@0x0039A000(baseparamer),0x00400000@0x0039C000(userdata),0x00020000@0x0079C000(radical_update),-@0x007BC000(user)
